<?xml version="1.0" encoding="UTF-8" ?>
<svg version="1.0" width="300" height="300"
	xmlns="http://www.w3.org/2000/svg"
>

<!--
	NOTE: font-size for 'ref number' and 'stop number indicator' must be
	adjusted if image size is changed. 
 -->

<!-- Background -->
<rect x="0%" y="0%" rx="5%" ry="5%" width="100%" height="100%" fill="#FFE68F" />

<!-- Top bezel -->
<rect x="25%" y="0%" rx="4%" ry="4%" width="50%" height="25%"
fill="midnightblue"
/>

<!-- Top main rectangle -->
<rect x="25%" y="12.5%" width="50%" height="37.5%" fill="midnightblue" />

<!-- Bottom bezel -->
<rect x="25%" y="75%" rx="4%" ry="4%" width="50%" height="25%"
fill="midnightblue"
/>

<!-- Bottom main rectangle -->
<rect x="25%" y="50%" fill="white" width="50%" height="37.5%" />

<!-- Bus icon circle -->
<circle cx="50%" cy="25%" r="23%" fill="white"/>
<circle cx="50%" cy="25%" r="22%" fill="midnightblue"/>
<circle cx="50%" cy="25%" r="21%" fill="white"/>

<!-- Ref number -->
<text x="50%" y="98%" fill="white" font-size="195%" font-family="sans-serif">
0000
</text>

<!-- Stop number indicator -->
<text x="50%" y="91%" fill="white" font-size="70%" font-family="sans-serif">
STOP NUMBER
</text>

	<!-- Center bus icon -->

<!-- Bus body -->
<rect x="40%" y="13%" rx="4%" ry="4%" width="20.5%" height="22.5%"
fill="midnightblue"
/>

<!-- Bus L tire -->
<rect x="42%" y="28%" rx="8%" ry="4%" width="5%" height="10%"
fill="midnightblue"
/>

<!-- Bus L light -->
<rect x="43%" y="28%" rx="8%" ry="4%" width="3%" height="3%"
fill="white"
/>

<!-- Bus R tire -->
<rect x="53%" y="28%" rx="8%" ry="4%" width="5%" height="10%"
fill="midnightblue"
/>

<!-- Bus R light -->
<rect x="54%" y="28%" rx="8%" ry="4%" width="3%" height="3%"
fill="white"
/>

<!-- Bus window -->
<rect x="41%" y="17%" rx="1%" ry="4%" width="18%" height="10%"
fill="white"
/>

<!-- Bus ticker -->
<rect x="42%" y="14%" rx="1%" ry="4%" width="16.5%" height="2%"
fill="white"
/>

<!-- Symmetry line -->
<!--rect x="49.5%" y="0%" rx="8%" ry="4%" width="1%" height="100%"
fill="black"
/-->

</svg>

